<?xml version="1.0" encoding="UTF-8" standalone="no"?>
<svg
   xmlns:dc="http://purl.org/dc/elements/1.1/"
   xmlns:cc="http://creativecommons.org/ns#"
   xmlns:rdf="http://www.w3.org/1999/02/22-rdf-syntax-ns#"
   xmlns:svg="http://www.w3.org/2000/svg"
   xmlns="http://www.w3.org/2000/svg"
   xmlns:xlink="http://www.w3.org/1999/xlink"
   xmlns:sodipodi="http://sodipodi.sourceforge.net/DTD/sodipodi-0.dtd"
   xmlns:inkscape="http://www.inkscape.org/namespaces/inkscape"
   version="1.0"
   width="315"
   height="225"
   id="svg2"
   inkscape:version="0.48.5 r10040"
   sodipodi:docname="shield-template-small.svg">
  <metadata
     id="metadata98">
    <rdf:RDF>
      <cc:Work
         rdf:about="">
        <dc:format>image/svg+xml</dc:format>
        <dc:type
           rdf:resource="http://purl.org/dc/dcmitype/StillImage" />
        <dc:title />
      </cc:Work>
    </rdf:RDF>
  </metadata>
  <sodipodi:namedview
     pagecolor="#ffffff"
     bordercolor="#666666"
     borderopacity="1"
     objecttolerance="10"
     gridtolerance="10"
     guidetolerance="10"
     inkscape:pageopacity="0"
     inkscape:pageshadow="2"
     inkscape:window-width="1920"
     inkscape:window-height="1018"
     id="namedview96"
     showgrid="true"
     inkscape:zoom="3.2988764"
     inkscape:cx="174.8023"
     inkscape:cy="122.13733"
     inkscape:window-x="-8"
     inkscape:window-y="-8"
     inkscape:window-maximized="1"
     inkscape:current-layer="svg2"
     units="in"
     fit-margin-top="0"
     fit-margin-left="0"
     fit-margin-right="0"
     fit-margin-bottom="0"
     inkscape:document-units="in">
    <inkscape:grid
       type="xygrid"
       id="grid3785"
       empspacing="4"
       visible="true"
       enabled="true"
       snapvisiblegridlinesonly="true"
       units="in"
       spacingx="0.0625in"
       spacingy="0.0625in" />
  </sodipodi:namedview>
  <defs
     id="defs4" />
  <image
     sodipodi:absref="C:\Users\jsi\Dropbox (Personal)\Fun\Asimov\pieces\shield\src\../../icon/xxIcon.png"
     xlink:href="../../icon/xxIcon.png"
     y="2.8421709e-014"
     x="135"
     id="image3787"
     height="45"
     width="45"
     style="stroke-width:0.5;stroke-miterlimit:4;stroke-dasharray:none" />
  <g
     id="g4041">
    <rect
       ry="9.0371004e-006"
       y="2.8421709e-014"
       x="135"
       height="45"
       width="2.8080001"
       id="rect3015"
       style="fill:#deaded;fill-opacity:1;stroke:none" />
    <rect
       ry="9.0371004e-006"
       y="-2.1854805e-014"
       x="177.183"
       height="45"
       width="2.8169999"
       id="rect3015-7"
       style="fill:#deaded;fill-opacity:1;stroke:none" />
    <rect
       ry="5.6391542e-007"
       y="42.192001"
       x="135"
       height="2.808002"
       width="45"
       id="rect3015-7-4"
       style="fill:#deaded;fill-opacity:1;stroke:none" />
    <rect
       transform="scale(1,-1)"
       ry="5.6572242e-007"
       y="-2.8169999"
       x="135"
       height="2.8169999"
       width="45"
       id="rect3015-7-4-0"
       style="fill:#deaded;fill-opacity:1;stroke:none" />
  </g>
  <image
     sodipodi:absref="C:\Users\jsi\Dropbox (Personal)\Fun\Asimov\pieces\shield\src\xxGraph.png"
     xlink:href="xxGraph.png"
     y="45"
     x="0"
     id="image3798"
     height="180"
     width="247.5" />
  <path
     inkscape:connector-curvature="0"
     id="path16"
     d="m 0,45 315,0 0,180 -315,0 z"
     style="fill:none;stroke:#000000;stroke-width:0.9;stroke-linecap:butt;stroke-linejoin:miter;stroke-miterlimit:4;stroke-opacity:1;stroke-dasharray:none;marker-start:none"
     sodipodi:nodetypes="ccccc" />
  <path
     inkscape:connector-curvature="0"
     id="path32"
     d="M 0,0 135,0 135,45 0,45 z"
     style="fill:none;stroke:#000000;stroke-width:0.9;stroke-linecap:butt;stroke-linejoin:miter;stroke-miterlimit:4;stroke-opacity:1;stroke-dasharray:none;marker-start:none"
     sodipodi:nodetypes="ccccc" />
  <path
     inkscape:connector-curvature="0"
     id="path36"
     d="m 180,0 135,0 0,45 -135,0 z"
     style="fill:none;stroke:#000000;stroke-width:0.9;stroke-linecap:butt;stroke-linejoin:miter;stroke-miterlimit:4;stroke-opacity:1;stroke-dasharray:none;marker-start:none"
     sodipodi:nodetypes="ccccc" />
  <text
     xml:space="preserve"
     style="font-size:40px;font-style:normal;font-weight:normal;line-height:125%;letter-spacing:0px;word-spacing:0px;fill:#000000;fill-opacity:1;stroke:none;font-family:Sans"
     x="160"
     y="71"
     id="text4054"
     sodipodi:linespacing="125%"><tspan
       sodipodi:role="line"
       id="tspan4056"
       x="160"
       y="71" /></text>
  <text
     xml:space="preserve"
     style="font-size:40px;font-style:normal;font-weight:normal;line-height:125%;letter-spacing:0px;word-spacing:0px;fill:#000000;fill-opacity:1;stroke:none;font-family:Sans"
     x="270.5"
     y="-74"
     id="text4066"
     sodipodi:linespacing="125%"><tspan
       sodipodi:role="line"
       id="tspan4068"
       x="270.5"
       y="-74" /></text>
  <path
     inkscape:connector-curvature="0"
     id="path32-1"
     d="m 135,0 45,0 0,45 -45,0 z"
     style="fill:none;stroke:#000000;stroke-width:0.89999998;stroke-linecap:butt;stroke-linejoin:miter;stroke-miterlimit:4;stroke-opacity:1;stroke-dasharray:none"
     sodipodi:nodetypes="ccccc" />
  <rect
     style="fill:#000000;fill-opacity:0;stroke:none"
     id="rect3880"
     width="123.75"
     height="33.75"
     x="5.625"
     y="5.625"
     ry="9.3195085e-006" />
  <text
     xml:space="preserve"
     style="font-size:14px;font-style:normal;font-variant:normal;font-weight:normal;font-stretch:normal;text-align:center;line-height:125%;letter-spacing:0px;word-spacing:0px;text-anchor:middle;fill:#000000;fill-opacity:1;stroke:none;font-family:Yuanti SC;-inkscape-font-specification:Yuanti SC;stroke-width:0.5;stroke-miterlimit:4;stroke-dasharray:none"
     x="247.60254"
     y="25.624023"
     id="text3019"
     sodipodi:linespacing="125%"><tspan
       sodipodi:role="line"
       id="tspan3021"
       x="247.60254"
       y="25.624023">xxType</tspan></text>
  <flowRoot
     xml:space="preserve"
     style="font-size:40px;font-style:normal;font-variant:normal;font-weight:normal;font-stretch:normal;text-align:center;line-height:125%;letter-spacing:0px;word-spacing:0px;text-anchor:middle;fill:#000000;fill-opacity:1;stroke:none;font-family:Yuanti SC;-inkscape-font-specification:Yuanti SC;stroke-width:0.5;stroke-miterlimit:4;stroke-dasharray:none"
     id="flowRoot3059"><flowRegion
       id="flowRegion3061"><use
         x="0"
         y="0"
         xlink:href="#rect3880"
         id="use3063" /></flowRegion><flowPara
       id="flowPara3065"
       style="font-size:14px;font-style:normal;font-variant:normal;font-weight:normal;font-stretch:normal;font-family:Yuanti SC;-inkscape-font-specification:Yuanti SC;stroke-width:0.5;stroke-miterlimit:4;stroke-dasharray:none">xxName</flowPara></flowRoot>  <g
     id="g3870"
     transform="matrix(1.4339881,0,0,1.4339881,-138.19153,22.073438)">
    <path
       inkscape:label="#derplabel"
       sodipodi:type="arc"
       style="fill:#1deadb;fill-opacity:1;stroke:none"
       id="derp1"
       sodipodi:cx="327.49515"
       sodipodi:cy="267.74301"
       sodipodi:rx="68.801498"
       sodipodi:ry="68.801498"
       d="m 258.69365,267.74301 c 0,-37.99802 30.80348,-68.8015 68.8015,-68.8015 l 0,68.8015 z"
       transform="matrix(-0.20749762,0.20822551,-0.20822549,-0.20749764,416.23043,66.113219)"
       sodipodi:start="3.1415927"
       sodipodi:end="4.712389" />
    <path
       sodipodi:type="arc"
       style="fill:#4deadb;fill-opacity:1;stroke:none"
       id="path3956-0"
       sodipodi:cx="327.49515"
       sodipodi:cy="267.74301"
       sodipodi:rx="68.801498"
       sodipodi:ry="68.801498"
       d="m 258.69365,267.74301 c 0,-37.99802 30.80348,-68.8015 68.8015,-68.8015 l 0,68.8015 z"
       transform="matrix(-0.20822549,-0.20749764,0.20749762,-0.20822551,305.13679,202.48043)"
       sodipodi:start="3.1415927"
       sodipodi:end="4.712389" />
    <path
       sodipodi:type="arc"
       style="fill:#2deadb;fill-opacity:1;stroke:none"
       id="path3956"
       sodipodi:cx="327.49515"
       sodipodi:cy="267.74301"
       sodipodi:rx="68.801498"
       sodipodi:ry="68.801498"
       d="m 258.69365,267.74301 c 0,-37.99802 30.80348,-68.8015 68.8015,-68.8015 l 0,68.8015 z"
       transform="matrix(0.20822549,0.20749764,-0.20749762,0.20822551,279.86322,-44.980434)"
       sodipodi:start="3.1415927"
       sodipodi:end="4.712389" />
    <path
       sodipodi:type="arc"
       style="fill:#3deadb;fill-opacity:1;stroke:none"
       id="path3956-9"
       sodipodi:cx="327.49515"
       sodipodi:cy="267.74301"
       sodipodi:rx="68.801498"
       sodipodi:ry="68.801498"
       d="m 258.69365,267.74301 c 0,-37.99802 30.80348,-68.8015 68.8015,-68.8015 l 0,68.8015 z"
       transform="matrix(0.20749762,-0.20822551,0.20822549,0.20749764,168.76959,91.386779)"
       sodipodi:start="3.1415927"
       sodipodi:end="4.712389" />
    <path
       sodipodi:open="true"
       sodipodi:type="arc"
       style="fill:#ffffff;fill-opacity:1;stroke:none"
       id="path3956-7"
       sodipodi:cx="327.49515"
       sodipodi:cy="267.74301"
       sodipodi:rx="68.801498"
       sodipodi:ry="68.801498"
       d="m 327.49515,198.94151 c 37.99802,0 68.8015,30.80348 68.8015,68.8015 0,37.99802 -30.80349,68.8015 -68.8015,68.8015 -37.99802,0 -68.8015,-30.80348 -68.8015,-68.8015 0,-37.99801 30.80347,-68.80149 68.80148,-68.8015"
       transform="matrix(0.14253023,0.14203201,-0.14203199,0.14253025,283.99182,-5.808455)"
       sodipodi:start="4.712389"
       sodipodi:end="10.995574" />
    <g
       transform="matrix(1.2379051,0,0,1.2379051,-69.588632,-18.774604)"
       id="g3859">
      <path
         inkscape:connector-curvature="0"
         style="fill:#ffffff;fill-opacity:1;fill-rule:evenodd;stroke:none"
         d="m 284.75053,74.004024 4.17221,2.05758 0,1.849473 -4.17221,-2.05758 z"
         id="path114" />
      <path
         inkscape:connector-curvature="0"
         style="fill:none;stroke:#000000;stroke-width:0.69913906;stroke-linecap:butt;stroke-linejoin:round;stroke-miterlimit:4;stroke-opacity:1;stroke-dasharray:none"
         d="m 284.75053,74.004024 4.17221,2.05758 0,1.849473 -4.17221,-2.05758 z"
         id="path116" />
      <path
         inkscape:connector-curvature="0"
         style="fill:#ffffff;fill-opacity:1;fill-rule:evenodd;stroke:none"
         d="m 284.75053,83.828713 4.17221,-2.05758 0,-1.849474 -4.17221,2.057581 z"
         id="path118" />
      <path
         inkscape:connector-curvature="0"
         style="fill:none;stroke:#000000;stroke-width:0.69913906;stroke-linecap:butt;stroke-linejoin:round;stroke-miterlimit:4;stroke-opacity:1;stroke-dasharray:none"
         d="m 284.75053,83.828713 4.17221,-2.05758 0,-1.849474 -4.17221,2.057581 z"
         id="path120" />
      <path
         inkscape:connector-curvature="0"
         style="fill:#ffffff;fill-opacity:1;fill-rule:evenodd;stroke:none"
         d="m 292.53441,76.122021 c 4.26956,0 7.72683,1.265427 7.72683,2.826234 0,1.560799 -3.45727,2.826226 -7.72683,2.826226 -4.26955,0 -7.73018,-1.265427 -7.73018,-2.826226 0,-1.560807 3.46063,-2.826234 7.73018,-2.826234"
         id="path122" />
      <path
         inkscape:connector-curvature="0"
         style="fill:none;stroke:#000000;stroke-width:0.69913906;stroke-linecap:butt;stroke-linejoin:round;stroke-miterlimit:4;stroke-opacity:1;stroke-dasharray:none"
         d="m 292.53441,76.122021 c 4.26956,0 7.72683,1.265427 7.72683,2.826234 0,1.560799 -3.45727,2.826226 -7.72683,2.826226 -4.26955,0 -7.73018,-1.265427 -7.73018,-2.826226 0,-1.560807 3.46063,-2.826234 7.73018,-2.826234"
         id="path124" />
      <path
         inkscape:connector-curvature="0"
         style="fill:#000000;fill-opacity:1;fill-rule:evenodd;stroke:none"
         d="m 292.49077,77.125908 c 1.00424,0 1.82235,0.81378 1.82235,1.822347 0,1.004238 -0.81811,1.822348 -1.82235,1.822348 -1.00856,0 -1.82234,-0.81811 -1.82234,-1.822348 0,-1.008567 0.81378,-1.822347 1.82234,-1.822347"
         id="path126" />
      <path
         inkscape:connector-curvature="0"
         style="fill:#ffffff;fill-opacity:1;fill-rule:evenodd;stroke:none"
         d="m 284.62633,76.796688 1.59102,0.61425 0,3.014209 -1.59102,0.610893 z"
         id="path130" />
      <path
         inkscape:connector-curvature="0"
         style="fill:none;stroke:#000000;stroke-width:0.5236997;stroke-linecap:butt;stroke-linejoin:round;stroke-miterlimit:4;stroke-opacity:1;stroke-dasharray:none"
         d="m 284.62633,76.796688 1.59102,0.61425 0,3.014209 -1.59102,0.610893 z"
         id="path132" />
    </g>
  </g>
  <path
     inkscape:connector-curvature="0"
     id="path16-1"
     d="m 247.5,45 67.5,0 0,180 -67.5,0 z"
     style="fill:none;stroke:#000000;stroke-width:0.9;stroke-linecap:butt;stroke-linejoin:miter;stroke-miterlimit:4;stroke-opacity:1;stroke-dasharray:none;marker-start:none"
     sodipodi:nodetypes="ccccc" />
</svg>
