<?xml version="1.0" encoding="UTF-8" standalone="no"?>
<!-- Created with Inkscape (http://www.inkscape.org/) -->

<svg
   xmlns:dc="http://purl.org/dc/elements/1.1/"
   xmlns:cc="http://creativecommons.org/ns#"
   xmlns:rdf="http://www.w3.org/1999/02/22-rdf-syntax-ns#"
   xmlns:svg="http://www.w3.org/2000/svg"
   xmlns="http://www.w3.org/2000/svg"
   xmlns:xlink="http://www.w3.org/1999/xlink"
   xmlns:sodipodi="http://sodipodi.sourceforge.net/DTD/sodipodi-0.dtd"
   xmlns:inkscape="http://www.inkscape.org/namespaces/inkscape"
   width="765"
   height="990"
   id="svg2"
   version="1.1"
   inkscape:version="0.48.5 r10040"
   sodipodi:docname="print-template-card.svg">
  <defs
     id="defs4" />
  <sodipodi:namedview
     id="base"
     pagecolor="#ffffff"
     bordercolor="#666666"
     borderopacity="1.0"
     inkscape:pageopacity="0.0"
     inkscape:pageshadow="2"
     inkscape:zoom="0.7"
     inkscape:cx="744.92479"
     inkscape:cy="546.46008"
     inkscape:document-units="in"
     inkscape:current-layer="layer1"
     showgrid="true"
     inkscape:window-width="1920"
     inkscape:window-height="1018"
     inkscape:window-x="-8"
     inkscape:window-y="-8"
     inkscape:window-maximized="1"
     units="in">
    <inkscape:grid
       type="xygrid"
       id="grid2990"
       empspacing="4"
       visible="true"
       enabled="true"
       snapvisiblegridlinesonly="true"
       units="in"
       spacingx="0.25in"
       spacingy="0.25in" />
  </sodipodi:namedview>
  <metadata
     id="metadata7">
    <rdf:RDF>
      <cc:Work
         rdf:about="">
        <dc:format>image/svg+xml</dc:format>
        <dc:type
           rdf:resource="http://purl.org/dc/dcmitype/StillImage" />
        <dc:title />
      </cc:Work>
    </rdf:RDF>
  </metadata>
  <g
     inkscape:label="Layer 1"
     inkscape:groupmode="layer"
     id="layer1"
     transform="translate(0,-62.35975)">
    <g
       id="g2992"
       transform="translate(11.25,22.497567)">
      <image
         sodipodi:absref="C:\Users\jsi\Dropbox (Personal)\Fun\Asimov\pieces\src\../src/xxCard0.png"
         xlink:href="../src/xxCard0.png"
         y="84.862183"
         x="56.25"
         id="image3057"
         height="225"
         width="315" />
      <image
         sodipodi:absref="C:\Users\jsi\Dropbox (Personal)\Fun\Asimov\pieces\src\../src/xxCard1.png"
         xlink:href="../src/xxCard1.png"
         width="315"
         height="225"
         id="image3025"
         x="371.25"
         y="84.862183" />
      <image
         sodipodi:absref="C:\Users\jsi\Dropbox (Personal)\Fun\Asimov\pieces\src\../src/xxCard3.png"
         xlink:href="../src/xxCard3.png"
         width="315"
         height="225"
         id="image3114"
         x="371.25"
         y="309.86218" />
      <image
         sodipodi:absref="C:\Users\jsi\Dropbox (Personal)\Fun\Asimov\pieces\src\../src/xxCard5.png"
         xlink:href="../src/xxCard5.png"
         width="315"
         height="225"
         id="image3136"
         x="371.25"
         y="534.86218" />
      <image
         sodipodi:absref="C:\Users\jsi\Dropbox (Personal)\Fun\Asimov\pieces\src\../src/xxCard7.png"
         xlink:href="../src/xxCard7.png"
         width="315"
         height="225"
         id="image3158"
         x="371.25"
         y="759.86218" />
      <image
         sodipodi:absref="C:\Users\jsi\Dropbox (Personal)\Fun\Asimov\pieces\src\../src/xxCard2.png"
         xlink:href="../src/xxCard2.png"
         width="315"
         height="225"
         id="image3180"
         x="56.25"
         y="309.86218" />
      <image
         sodipodi:absref="C:\Users\jsi\Dropbox (Personal)\Fun\Asimov\pieces\src\../src/xxCard4.png"
         xlink:href="../src/xxCard4.png"
         width="315"
         height="225"
         id="image3202"
         x="56.25"
         y="534.86218" />
      <image
         sodipodi:absref="C:\Users\jsi\Dropbox (Personal)\Fun\Asimov\pieces\src\../src/xxCard6.png"
         xlink:href="../src/xxCard6.png"
         width="315"
         height="225"
         id="image3224"
         x="56.25"
         y="759.86218" />
    </g>
  </g>
</svg>
