<?xml version="1.0" encoding="UTF-8" standalone="no"?>
<svg
   xmlns:dc="http://purl.org/dc/elements/1.1/"
   xmlns:cc="http://creativecommons.org/ns#"
   xmlns:rdf="http://www.w3.org/1999/02/22-rdf-syntax-ns#"
   xmlns:svg="http://www.w3.org/2000/svg"
   xmlns="http://www.w3.org/2000/svg"
   xmlns:xlink="http://www.w3.org/1999/xlink"
   xmlns:sodipodi="http://sodipodi.sourceforge.net/DTD/sodipodi-0.dtd"
   xmlns:inkscape="http://www.inkscape.org/namespaces/inkscape"
   version="1.0"
   width="315"
   height="225"
   id="svg2"
   inkscape:version="0.48.5 r10040"
   sodipodi:docname="weapon-template-small.svg">
  <metadata
     id="metadata98">
    <rdf:RDF>
      <cc:Work
         rdf:about="">
        <dc:format>image/svg+xml</dc:format>
        <dc:type
           rdf:resource="http://purl.org/dc/dcmitype/StillImage" />
        <dc:title />
      </cc:Work>
    </rdf:RDF>
  </metadata>
  <sodipodi:namedview
     pagecolor="#ffffff"
     bordercolor="#666666"
     borderopacity="1"
     objecttolerance="10"
     gridtolerance="10"
     guidetolerance="10"
     inkscape:pageopacity="0"
     inkscape:pageshadow="2"
     inkscape:window-width="1920"
     inkscape:window-height="1018"
     id="namedview96"
     showgrid="true"
     inkscape:zoom="3.2988764"
     inkscape:cx="182.24024"
     inkscape:cy="105.36874"
     inkscape:window-x="-8"
     inkscape:window-y="-8"
     inkscape:window-maximized="1"
     inkscape:current-layer="svg2"
     units="in"
     fit-margin-top="0"
     fit-margin-left="0"
     fit-margin-right="0"
     fit-margin-bottom="0"
     inkscape:document-units="in">
    <inkscape:grid
       type="xygrid"
       id="grid3098"
       empspacing="4"
       visible="true"
       enabled="true"
       snapvisiblegridlinesonly="true"
       spacingx="0.0625in"
       spacingy="0.0625in"
       units="in" />
  </sodipodi:namedview>
  <defs
     id="defs4" />
  <image
     sodipodi:absref="C:\Users\jsi\Dropbox (Personal)\Fun\Asimov\pieces\weapon\src\../../icon/xxIcon.png"
     xlink:href="../../icon/xxIcon.png"
     y="0"
     x="135.00002"
     id="image3787-7"
     height="45"
     width="45"
     style="stroke-width:0.5;stroke-miterlimit:4;stroke-dasharray:none" />
  <g
     transform="translate(0,-3.3378601e-6)"
     id="g4041">
    <rect
       ry="9.0371004e-006"
       y="2.8421709e-014"
       x="135"
       height="45"
       width="2.8080001"
       id="rect3015"
       style="fill:#deaded;fill-opacity:1;stroke:none" />
    <rect
       ry="9.0371004e-006"
       y="-2.1854805e-014"
       x="177.183"
       height="45"
       width="2.8169999"
       id="rect3015-7"
       style="fill:#deaded;fill-opacity:1;stroke:none" />
    <rect
       ry="5.6391542e-007"
       y="42.192001"
       x="135"
       height="2.808002"
       width="45"
       id="rect3015-7-4"
       style="fill:#deaded;fill-opacity:1;stroke:none" />
    <rect
       transform="scale(1,-1)"
       ry="5.6572242e-007"
       y="-2.8169999"
       x="135"
       height="2.8169999"
       width="45"
       id="rect3015-7-4-0"
       style="fill:#deaded;fill-opacity:1;stroke:none" />
  </g>
  <text
     xml:space="preserve"
     style="font-size:16px;font-style:normal;font-weight:normal;line-height:125%;letter-spacing:0px;word-spacing:0px;fill:#000000;fill-opacity:1;stroke:none;font-family:Yuanti SC;-inkscape-font-specification:Yuanti SC"
     x="-179.98828"
     y="261.60938"
     id="text3021-1"
     sodipodi:linespacing="125%"
     transform="matrix(0,-1,1,0,0,0)"><tspan
       sodipodi:role="line"
       id="tspan3023-6"
       x="-177.76953"
       y="261.60938"
       style="font-size:16px;font-style:normal;font-variant:normal;font-weight:normal;font-stretch:normal;text-align:center;text-anchor:middle;font-family:Yuanti SC;-inkscape-font-specification:Yuanti SC">Alt   F I R E </tspan></text>
  <text
     sodipodi:linespacing="125%"
     id="text3025-17"
     y="151.875"
     x="272.92969"
     style="font-size:10px;font-style:normal;font-weight:normal;text-align:center;line-height:125%;letter-spacing:0px;word-spacing:0px;text-anchor:middle;fill:#000000;fill-opacity:1;stroke:none;font-family:Times New Roman;-inkscape-font-specification:Times New Roman"
     xml:space="preserve"><tspan
       style="font-size:10px;text-align:center;text-anchor:middle;font-family:Yuanti SC;-inkscape-font-specification:Yuanti SC"
       y="151.875"
       x="272.92969"
       id="tspan3027-1"
       sodipodi:role="line">Sh</tspan></text>
  <text
     sodipodi:linespacing="125%"
     id="text3025-1-1"
     y="151.875"
     x="289.63135"
     style="font-size:10px;font-style:normal;font-weight:normal;text-align:center;line-height:125%;letter-spacing:0px;word-spacing:0px;text-anchor:middle;fill:#000000;fill-opacity:1;stroke:none;font-family:Times New Roman;-inkscape-font-specification:Times New Roman"
     xml:space="preserve"><tspan
       style="font-size:10px;text-align:center;text-anchor:middle;font-family:Yuanti SC;-inkscape-font-specification:Yuanti SC"
       y="151.875"
       x="289.63135"
       id="tspan3027-7-5"
       sodipodi:role="line">Ar</tspan></text>
  <text
     sodipodi:linespacing="125%"
     id="text3025-4-27"
     y="151.875"
     x="306.20361"
     style="font-size:10px;font-style:normal;font-weight:normal;text-align:center;line-height:125%;letter-spacing:0px;word-spacing:0px;text-anchor:middle;fill:#000000;fill-opacity:1;stroke:none;font-family:Times New Roman;-inkscape-font-specification:Times New Roman"
     xml:space="preserve"><tspan
       style="font-size:10px;text-align:center;text-anchor:middle;font-family:Yuanti SC;-inkscape-font-specification:Yuanti SC"
       y="151.875"
       x="306.20361"
       id="tspan3027-0-6"
       sodipodi:role="line">Ex</tspan></text>
  <text
     xml:space="preserve"
     style="font-size:10px;font-style:normal;font-weight:normal;text-align:center;line-height:125%;letter-spacing:0px;word-spacing:0px;text-anchor:middle;fill:#000000;fill-opacity:1;stroke:none;font-family:Times New Roman;-inkscape-font-specification:Times New Roman"
     x="272.63428"
     y="196.875"
     id="text3025-9-1"
     sodipodi:linespacing="125%"><tspan
       sodipodi:role="line"
       id="tspan3027-4-4"
       x="272.63428"
       y="196.875"
       style="font-size:10px;text-align:center;text-anchor:middle;font-family:Yuanti SC;-inkscape-font-specification:Yuanti SC">Ra</tspan></text>
  <text
     xml:space="preserve"
     style="font-size:10px;font-style:normal;font-weight:normal;text-align:center;line-height:125%;letter-spacing:0px;word-spacing:0px;text-anchor:middle;fill:#000000;fill-opacity:1;stroke:none;font-family:Times New Roman;-inkscape-font-specification:Times New Roman"
     x="290.0415"
     y="196.875"
     id="text3025-1-8-2"
     sodipodi:linespacing="125%"><tspan
       sodipodi:role="line"
       id="tspan3027-7-8-3"
       x="290.0415"
       y="196.875"
       style="font-size:10px;text-align:center;text-anchor:middle;font-family:Yuanti SC;-inkscape-font-specification:Yuanti SC">An</tspan></text>
  <text
     xml:space="preserve"
     style="font-size:10px;font-style:normal;font-weight:normal;text-align:center;line-height:125%;letter-spacing:0px;word-spacing:0px;text-anchor:middle;fill:#000000;fill-opacity:1;stroke:none;font-family:Times New Roman;-inkscape-font-specification:Times New Roman"
     x="306.61621"
     y="196.875"
     id="text3025-4-2-2"
     sodipodi:linespacing="125%"><tspan
       sodipodi:role="line"
       id="tspan3027-0-4-2"
       x="306.61621"
       y="196.875"
       style="font-size:10px;text-align:center;text-anchor:middle;font-family:Yuanti SC;-inkscape-font-specification:Yuanti SC">Ac</tspan></text>
  <text
     sodipodi:linespacing="125%"
     id="text3025-18-5"
     y="168.75"
     x="270"
     style="font-size:10px;font-style:normal;font-weight:normal;text-align:center;line-height:125%;letter-spacing:0px;word-spacing:0px;text-anchor:middle;fill:#000000;fill-opacity:1;stroke:none;font-family:Yuanti SC;-inkscape-font-specification:Yuanti SC"
     xml:space="preserve"><tspan
       style="font-size:10px;text-align:center;text-anchor:middle;font-family:Yuanti SC;-inkscape-font-specification:Yuanti SC"
       y="168.75"
       x="270"
       id="tspan3027-9-0"
       sodipodi:role="line">xxSh2</tspan></text>
  <text
     sodipodi:linespacing="125%"
     id="text3025-1-2-2"
     y="168.75"
     x="289.91699"
     style="font-size:10px;font-style:normal;font-weight:normal;text-align:center;line-height:125%;letter-spacing:0px;word-spacing:0px;text-anchor:middle;fill:#000000;fill-opacity:1;stroke:none;font-family:Yuanti SC;-inkscape-font-specification:Yuanti SC"
     xml:space="preserve"><tspan
       style="font-size:10px;text-align:center;text-anchor:middle;font-family:Yuanti SC;-inkscape-font-specification:Yuanti SC"
       y="168.75"
       x="289.91699"
       id="tspan3027-7-7-8"
       sodipodi:role="line">xxAr2</tspan></text>
  <text
     sodipodi:linespacing="125%"
     id="text3025-4-9-6"
     y="168.75"
     x="306.79199"
     style="font-size:10px;font-style:normal;font-weight:normal;text-align:center;line-height:125%;letter-spacing:0px;word-spacing:0px;text-anchor:middle;fill:#000000;fill-opacity:1;stroke:none;font-family:Yuanti SC;-inkscape-font-specification:Yuanti SC"
     xml:space="preserve"><tspan
       style="font-size:10px;text-align:center;text-anchor:middle;font-family:Yuanti SC;-inkscape-font-specification:Yuanti SC"
       y="168.75"
       x="306.79199"
       id="tspan3027-0-5-0"
       sodipodi:role="line">xxEx2</tspan></text>
  <text
     xml:space="preserve"
     style="font-size:10px;font-style:normal;font-weight:normal;text-align:center;line-height:125%;letter-spacing:0px;word-spacing:0px;text-anchor:middle;fill:#000000;fill-opacity:1;stroke:none;font-family:Yuanti SC;-inkscape-font-specification:Yuanti SC"
     x="273.04199"
     y="213.75"
     id="text3025-9-4-2"
     sodipodi:linespacing="125%"><tspan
       sodipodi:role="line"
       id="tspan3027-4-3-4"
       x="273.04199"
       y="213.75"
       style="font-size:10px;text-align:center;text-anchor:middle;font-family:Yuanti SC;-inkscape-font-specification:Yuanti SC">xxRa2</tspan></text>
  <text
     xml:space="preserve"
     style="font-size:10px;font-style:normal;font-weight:normal;text-align:center;line-height:125%;letter-spacing:0px;word-spacing:0px;text-anchor:middle;fill:#000000;fill-opacity:1;stroke:none;font-family:Yuanti SC;-inkscape-font-specification:Yuanti SC"
     x="289.91699"
     y="213.75"
     id="text3025-1-8-1-8"
     sodipodi:linespacing="125%"><tspan
       sodipodi:role="line"
       id="tspan3027-7-8-2-6"
       x="289.91699"
       y="213.75"
       style="font-size:10px;text-align:center;text-anchor:middle;font-family:Yuanti SC;-inkscape-font-specification:Yuanti SC">xxAn2</tspan></text>
  <text
     xml:space="preserve"
     style="font-size:10px;font-style:normal;font-weight:normal;text-align:center;line-height:125%;letter-spacing:0px;word-spacing:0px;text-anchor:middle;fill:#000000;fill-opacity:1;stroke:none;font-family:Yuanti SC;-inkscape-font-specification:Yuanti SC"
     x="306.79199"
     y="213.75"
     id="text3025-4-2-3-5"
     sodipodi:linespacing="125%"><tspan
       sodipodi:role="line"
       id="tspan3027-0-4-3-0"
       x="306.79199"
       y="213.75"
       style="font-size:10px;text-align:center;text-anchor:middle;font-family:Yuanti SC;-inkscape-font-specification:Yuanti SC">xxAc2</tspan></text>
  <path
     inkscape:connector-curvature="0"
     id="path16-1-4-27-1"
     d="m 264.375,135 -16.875,0 0,90 16.875,0 z"
     style="fill:none;stroke:#000000;stroke-width:0.44999999;stroke-linecap:butt;stroke-linejoin:miter;stroke-miterlimit:4;stroke-opacity:1;stroke-dasharray:none;marker-start:none" />
  <path
     inkscape:connector-curvature="0"
     id="path32-7-1"
     d="m 247.5,135 67.5,0 0,90 -67.5,0 z"
     style="fill:#1deadb;fill-opacity:1;stroke:none" />
  <text
     xml:space="preserve"
     style="font-size:40px;font-style:normal;font-weight:normal;line-height:125%;letter-spacing:0px;word-spacing:0px;fill:#000000;fill-opacity:1;stroke:none;font-family:Yuanti SC;-inkscape-font-specification:Yuanti SC"
     x="160"
     y="71"
     id="text4054"
     sodipodi:linespacing="125%"><tspan
       sodipodi:role="line"
       id="tspan4056"
       x="160"
       y="71" /></text>
  <text
     xml:space="preserve"
     style="font-size:40px;font-style:normal;font-weight:normal;line-height:125%;letter-spacing:0px;word-spacing:0px;fill:#000000;fill-opacity:1;stroke:none;font-family:Yuanti SC;-inkscape-font-specification:Yuanti SC"
     x="270.5"
     y="-74"
     id="text4066"
     sodipodi:linespacing="125%"><tspan
       sodipodi:role="line"
       id="tspan4068"
       x="270.5"
       y="-74" /></text>
  <path
     inkscape:connector-curvature="0"
     id="path16-1-7-5"
     d="m 314.99999,45 -67.5,0 0,180.00002 67.5,0 z"
     style="fill:none;stroke:#000000;stroke-width:0.89999998;stroke-linecap:butt;stroke-linejoin:miter;stroke-miterlimit:4;stroke-opacity:1;stroke-dasharray:none;marker-start:none" />
  <text
     xml:space="preserve"
     style="font-size:16px;font-style:normal;font-weight:normal;line-height:125%;letter-spacing:0px;word-spacing:0px;fill:#000000;fill-opacity:1;stroke:none;font-family:Yuanti SC;-inkscape-font-specification:Yuanti SC"
     x="-90.65625"
     y="261.66406"
     id="text3021"
     sodipodi:linespacing="125%"
     transform="matrix(0,-1,1,0,0,0)"><tspan
       sodipodi:role="line"
       id="tspan3023"
       x="-88.4375"
       y="261.66406"
       style="font-size:16px;font-style:normal;font-variant:normal;font-weight:normal;font-stretch:normal;text-align:center;text-anchor:middle;font-family:Yuanti SC;-inkscape-font-specification:Yuanti SC">F I R E </tspan></text>
  <text
     sodipodi:linespacing="125%"
     id="text3025"
     y="61.875"
     x="272.92969"
     style="font-size:10px;font-style:normal;font-weight:normal;text-align:center;line-height:125%;letter-spacing:0px;word-spacing:0px;text-anchor:middle;fill:#000000;fill-opacity:1;stroke:none;font-family:Yuanti SC;-inkscape-font-specification:Yuanti SC"
     xml:space="preserve"><tspan
       style="font-size:10px;text-align:center;text-anchor:middle;font-family:Yuanti SC;-inkscape-font-specification:Yuanti SC"
       y="61.875"
       x="272.92969"
       id="tspan3027"
       sodipodi:role="line">Sh</tspan></text>
  <text
     sodipodi:linespacing="125%"
     id="text3025-1"
     y="61.875"
     x="289.63135"
     style="font-size:10px;font-style:normal;font-weight:normal;text-align:center;line-height:125%;letter-spacing:0px;word-spacing:0px;text-anchor:middle;fill:#000000;fill-opacity:1;stroke:none;font-family:Yuanti SC;-inkscape-font-specification:Yuanti SC"
     xml:space="preserve"><tspan
       style="font-size:10px;text-align:center;text-anchor:middle;font-family:Yuanti SC;-inkscape-font-specification:Yuanti SC"
       y="61.875"
       x="289.63135"
       id="tspan3027-7"
       sodipodi:role="line">Ar</tspan></text>
  <text
     sodipodi:linespacing="125%"
     id="text3025-4"
     y="61.875"
     x="306.20361"
     style="font-size:10px;font-style:normal;font-weight:normal;text-align:center;line-height:125%;letter-spacing:0px;word-spacing:0px;text-anchor:middle;fill:#000000;fill-opacity:1;stroke:none;font-family:Yuanti SC;-inkscape-font-specification:Yuanti SC"
     xml:space="preserve"><tspan
       style="font-size:10px;text-align:center;text-anchor:middle;font-family:Yuanti SC;-inkscape-font-specification:Yuanti SC"
       y="61.875"
       x="306.20361"
       id="tspan3027-0"
       sodipodi:role="line">Ex</tspan></text>
  <text
     xml:space="preserve"
     style="font-size:10px;font-style:normal;font-weight:normal;text-align:center;line-height:125%;letter-spacing:0px;word-spacing:0px;text-anchor:middle;fill:#000000;fill-opacity:1;stroke:none;font-family:Yuanti SC;-inkscape-font-specification:Yuanti SC"
     x="272.63428"
     y="106.875"
     id="text3025-9"
     sodipodi:linespacing="125%"><tspan
       sodipodi:role="line"
       id="tspan3027-4"
       x="272.63428"
       y="106.875"
       style="font-size:10px;text-align:center;text-anchor:middle;font-family:Yuanti SC;-inkscape-font-specification:Yuanti SC">Ra</tspan></text>
  <text
     xml:space="preserve"
     style="font-size:10px;font-style:normal;font-weight:normal;text-align:center;line-height:125%;letter-spacing:0px;word-spacing:0px;text-anchor:middle;fill:#000000;fill-opacity:1;stroke:none;font-family:Yuanti SC;-inkscape-font-specification:Yuanti SC"
     x="290.0415"
     y="106.875"
     id="text3025-1-8"
     sodipodi:linespacing="125%"><tspan
       sodipodi:role="line"
       id="tspan3027-7-8"
       x="290.0415"
       y="106.875"
       style="font-size:10px;text-align:center;text-anchor:middle;font-family:Yuanti SC;-inkscape-font-specification:Yuanti SC">An</tspan></text>
  <text
     xml:space="preserve"
     style="font-size:10px;font-style:normal;font-weight:normal;text-align:center;line-height:125%;letter-spacing:0px;word-spacing:0px;text-anchor:middle;fill:#000000;fill-opacity:1;stroke:none;font-family:Yuanti SC;-inkscape-font-specification:Yuanti SC"
     x="306.61621"
     y="106.875"
     id="text3025-4-2"
     sodipodi:linespacing="125%"><tspan
       sodipodi:role="line"
       id="tspan3027-0-4"
       x="306.61621"
       y="106.875"
       style="font-size:10px;text-align:center;text-anchor:middle;font-family:Yuanti SC;-inkscape-font-specification:Yuanti SC">Ac</tspan></text>
  <text
     sodipodi:linespacing="125%"
     id="text3025-18"
     y="78.75"
     x="273.69629"
     style="font-size:10px;font-style:normal;font-weight:normal;text-align:center;line-height:125%;letter-spacing:0px;word-spacing:0px;text-anchor:middle;fill:#000000;fill-opacity:1;stroke:none;font-family:Yuanti SC;-inkscape-font-specification:Yuanti SC"
     xml:space="preserve"><tspan
       style="font-size:10px;text-align:center;text-anchor:middle;font-family:Yuanti SC;-inkscape-font-specification:Yuanti SC"
       y="78.75"
       x="273.69629"
       id="tspan3027-9"
       sodipodi:role="line">xxSh1</tspan></text>
  <text
     sodipodi:linespacing="125%"
     id="text3025-1-2"
     y="78.75"
     x="290.57129"
     style="font-size:10px;font-style:normal;font-weight:normal;text-align:center;line-height:125%;letter-spacing:0px;word-spacing:0px;text-anchor:middle;fill:#000000;fill-opacity:1;stroke:none;font-family:Yuanti SC;-inkscape-font-specification:Yuanti SC"
     xml:space="preserve"><tspan
       style="font-size:10px;text-align:center;text-anchor:middle;font-family:Yuanti SC;-inkscape-font-specification:Yuanti SC"
       y="78.75"
       x="290.57129"
       id="tspan3027-7-7"
       sodipodi:role="line">xxAr1</tspan></text>
  <text
     sodipodi:linespacing="125%"
     id="text3025-4-9"
     y="78.75"
     x="307.44629"
     style="font-size:10px;font-style:normal;font-weight:normal;text-align:center;line-height:125%;letter-spacing:0px;word-spacing:0px;text-anchor:middle;fill:#000000;fill-opacity:1;stroke:none;font-family:Yuanti SC;-inkscape-font-specification:Yuanti SC"
     xml:space="preserve"><tspan
       style="font-size:10px;text-align:center;text-anchor:middle;font-family:Yuanti SC;-inkscape-font-specification:Yuanti SC"
       y="78.75"
       x="307.44629"
       id="tspan3027-0-5"
       sodipodi:role="line">xxEx1</tspan></text>
  <text
     xml:space="preserve"
     style="font-size:10px;font-style:normal;font-weight:normal;text-align:center;line-height:125%;letter-spacing:0px;word-spacing:0px;text-anchor:middle;fill:#000000;fill-opacity:1;stroke:none;font-family:Yuanti SC;-inkscape-font-specification:Yuanti SC"
     x="273.69629"
     y="123.75"
     id="text3025-9-4"
     sodipodi:linespacing="125%"><tspan
       sodipodi:role="line"
       id="tspan3027-4-3"
       x="273.69629"
       y="123.75"
       style="font-size:10px;text-align:center;text-anchor:middle;font-family:Yuanti SC;-inkscape-font-specification:Yuanti SC">xxRa1</tspan></text>
  <text
     xml:space="preserve"
     style="font-size:10px;font-style:normal;font-weight:normal;text-align:center;line-height:125%;letter-spacing:0px;word-spacing:0px;text-anchor:middle;fill:#000000;fill-opacity:1;stroke:none;font-family:Yuanti SC;-inkscape-font-specification:Yuanti SC"
     x="290.57129"
     y="123.75"
     id="text3025-1-8-1"
     sodipodi:linespacing="125%"><tspan
       sodipodi:role="line"
       id="tspan3027-7-8-2"
       x="290.57129"
       y="123.75"
       style="font-size:10px;text-align:center;text-anchor:middle;font-family:Yuanti SC;-inkscape-font-specification:Yuanti SC">xxAn1</tspan></text>
  <text
     xml:space="preserve"
     style="font-size:10px;font-style:normal;font-weight:normal;text-align:center;line-height:125%;letter-spacing:0px;word-spacing:0px;text-anchor:middle;fill:#000000;fill-opacity:1;stroke:none;font-family:Yuanti SC;-inkscape-font-specification:Yuanti SC"
     x="307.44629"
     y="123.75"
     id="text3025-4-2-3"
     sodipodi:linespacing="125%"><tspan
       sodipodi:role="line"
       id="tspan3027-0-4-3"
       x="307.44629"
       y="123.75"
       style="font-size:10px;text-align:center;text-anchor:middle;font-family:Yuanti SC;-inkscape-font-specification:Yuanti SC">xxAc1</tspan></text>
  <text
     xml:space="preserve"
     style="font-size:40px;font-style:normal;font-weight:normal;line-height:125%;letter-spacing:0px;word-spacing:0px;fill:#000000;fill-opacity:1;stroke:none;font-family:Yuanti SC;-inkscape-font-specification:Yuanti SC"
     x="-54.489101"
     y="-56.581741"
     id="text4054-4"
     sodipodi:linespacing="125%"><tspan
       sodipodi:role="line"
       id="tspan4056-8"
       x="-54.489101"
       y="-56.581741" /></text>
  <text
     xml:space="preserve"
     style="font-size:40px;font-style:normal;font-weight:normal;line-height:125%;letter-spacing:0px;word-spacing:0px;fill:#000000;fill-opacity:1;stroke:none;font-family:Yuanti SC;-inkscape-font-specification:Yuanti SC"
     x="56.010899"
     y="-201.58174"
     id="text4066-8"
     sodipodi:linespacing="125%"><tspan
       sodipodi:role="line"
       id="tspan4068-2"
       x="56.010899"
       y="-201.58174" /></text>
  <image
     width="247.5"
     height="180"
     id="image3798-1"
     x="4.7753906e-006"
     y="45"
     xlink:href="xxGraph.png"
     sodipodi:absref="C:\Users\jsi\Dropbox (Personal)\Fun\Asimov\pieces\shield\src\xxGraph.png" />
  <path
     sodipodi:nodetypes="ccccc"
     inkscape:connector-curvature="0"
     id="path16-4"
     d="m 0,45 315,0 0,180 -315,0 z"
     style="fill:none;stroke:#000000;stroke-width:0.5;stroke-linecap:butt;stroke-linejoin:miter;stroke-miterlimit:4;stroke-opacity:1;stroke-dasharray:none;marker-start:none" />
  <path
     sodipodi:nodetypes="ccccc"
     inkscape:connector-curvature="0"
     id="path32-0"
     d="M 0,0 135,0 135,45 0,45 z"
     style="fill:none;stroke:#000000;stroke-width:0.5;stroke-linecap:butt;stroke-linejoin:miter;stroke-miterlimit:4;stroke-opacity:1;stroke-dasharray:none" />
  <path
     sodipodi:nodetypes="ccccc"
     inkscape:connector-curvature="0"
     id="path36-9"
     d="m 180,0 135,0 0,45 -135,0 z"
     style="fill:none;stroke:#000000;stroke-width:0.5;stroke-linecap:butt;stroke-linejoin:miter;stroke-miterlimit:4;stroke-opacity:1;stroke-dasharray:none" />
  <path
     sodipodi:nodetypes="ccccc"
     inkscape:connector-curvature="0"
     id="path32-1-4"
     d="m 135,0 45,0 0,45 -45,0 z"
     style="fill:none;stroke:#000000;stroke-width:0.5;stroke-linecap:butt;stroke-linejoin:miter;stroke-miterlimit:4;stroke-opacity:1;stroke-dasharray:none" />
  <rect
     style="fill:#000000;fill-opacity:0;stroke:none"
     id="rect3880-5"
     width="123.75"
     height="33.75"
     x="5.625"
     y="5.625"
     ry="9.3195085e-006" />
  <rect
     style="fill:#000000;fill-opacity:0;stroke:none"
     id="rect3880-5-7"
     width="123.75"
     height="33.75"
     x="185.625"
     y="5.625"
     ry="9.3195085e-006" />
  <g
     transform="translate(213.75,-134.78412)"
     id="g4348-2-8" />
  <path
     inkscape:connector-curvature="0"
     id="path16-1-4-27-1-7"
     d="m 264.375,45 -16.875,0 0,90 16.875,0 z"
     style="fill:none;stroke:#000000;stroke-width:0.44999999;stroke-linecap:butt;stroke-linejoin:miter;stroke-miterlimit:4;stroke-opacity:1;stroke-dasharray:none;marker-start:none" />
  <path
     inkscape:connector-curvature="0"
     id="path16-1-4-27-1-7-4"
     d="m 281.25,44.99999 -16.875,0 0,45 16.875,0 z"
     style="fill:none;stroke:#000000;stroke-width:0.44999999;stroke-linecap:butt;stroke-linejoin:miter;stroke-miterlimit:4;stroke-opacity:1;stroke-dasharray:none;marker-start:none" />
  <path
     inkscape:connector-curvature="0"
     id="path16-1-4-27-1-7-4-0"
     d="m 298.12499,44.99999 -16.875,0 0,45 16.875,0 z"
     style="fill:none;stroke:#000000;stroke-width:0.44999999;stroke-linecap:butt;stroke-linejoin:miter;stroke-miterlimit:4;stroke-opacity:1;stroke-dasharray:none;marker-start:none" />
  <path
     inkscape:connector-curvature="0"
     id="path16-1-4-27-1-7-4-9"
     d="m 315,44.99999 -16.875,0 0,45.00001 16.875,0 z"
     style="fill:none;stroke:#000000;stroke-width:0.44999999;stroke-linecap:butt;stroke-linejoin:miter;stroke-miterlimit:4;stroke-opacity:1;stroke-dasharray:none;marker-start:none" />
  <path
     inkscape:connector-curvature="0"
     id="path16-1-4-27-1-7-4-4"
     d="m 281.25001,90 -16.875,0 0,45 16.875,0 z"
     style="fill:none;stroke:#000000;stroke-width:0.44999999;stroke-linecap:butt;stroke-linejoin:miter;stroke-miterlimit:4;stroke-opacity:1;stroke-dasharray:none;marker-start:none" />
  <path
     inkscape:connector-curvature="0"
     id="path16-1-4-27-1-7-4-0-8"
     d="m 298.125,90 -16.875,0 0,45 16.875,0 z"
     style="fill:none;stroke:#000000;stroke-width:0.44999999;stroke-linecap:butt;stroke-linejoin:miter;stroke-miterlimit:4;stroke-opacity:1;stroke-dasharray:none;marker-start:none" />
  <path
     inkscape:connector-curvature="0"
     id="path16-1-4-27-1-7-4-9-8"
     d="m 315.00001,90 -16.875,0 0,45.00001 16.875,0 z"
     style="fill:none;stroke:#000000;stroke-width:0.44999999;stroke-linecap:butt;stroke-linejoin:miter;stroke-miterlimit:4;stroke-opacity:1;stroke-dasharray:none;marker-start:none" />
  <path
     inkscape:connector-curvature="0"
     id="path16-1-4-27-1-7-4-2"
     d="m 281.24999,134.99999 -16.875,0 0,45 16.875,0 z"
     style="fill:none;stroke:#000000;stroke-width:0.44999999;stroke-linecap:butt;stroke-linejoin:miter;stroke-miterlimit:4;stroke-opacity:1;stroke-dasharray:none;marker-start:none" />
  <path
     inkscape:connector-curvature="0"
     id="path16-1-4-27-1-7-4-0-4"
     d="m 298.12498,134.99999 -16.875,0 0,45 16.875,0 z"
     style="fill:none;stroke:#000000;stroke-width:0.44999999;stroke-linecap:butt;stroke-linejoin:miter;stroke-miterlimit:4;stroke-opacity:1;stroke-dasharray:none;marker-start:none" />
  <path
     inkscape:connector-curvature="0"
     id="path16-1-4-27-1-7-4-9-5"
     d="m 314.99999,134.99999 -16.875,0 0,45.00001 16.875,0 z"
     style="fill:none;stroke:#000000;stroke-width:0.44999999;stroke-linecap:butt;stroke-linejoin:miter;stroke-miterlimit:4;stroke-opacity:1;stroke-dasharray:none;marker-start:none" />
  <path
     inkscape:connector-curvature="0"
     id="path16-1-4-27-1-7-4-4-5"
     d="m 281.25,180 -16.875,0 0,45 16.875,0 z"
     style="fill:none;stroke:#000000;stroke-width:0.44999999;stroke-linecap:butt;stroke-linejoin:miter;stroke-miterlimit:4;stroke-opacity:1;stroke-dasharray:none;marker-start:none" />
  <path
     inkscape:connector-curvature="0"
     id="path16-1-4-27-1-7-4-0-8-1"
     d="m 298.12499,180 -16.875,0 0,45 16.875,0 z"
     style="fill:none;stroke:#000000;stroke-width:0.44999999;stroke-linecap:butt;stroke-linejoin:miter;stroke-miterlimit:4;stroke-opacity:1;stroke-dasharray:none;marker-start:none" />
  <path
     inkscape:connector-curvature="0"
     id="path16-1-4-27-1-7-4-9-8-7"
     d="m 315,180 -16.875,0 0,45.00001 16.875,0 z"
     style="fill:none;stroke:#000000;stroke-width:0.44999999;stroke-linecap:butt;stroke-linejoin:miter;stroke-miterlimit:4;stroke-opacity:1;stroke-dasharray:none;marker-start:none" />
  <flowRoot
     xml:space="preserve"
     style="font-size:40px;font-style:normal;font-variant:normal;font-weight:normal;font-stretch:normal;text-align:center;line-height:125%;letter-spacing:0px;word-spacing:0px;text-anchor:middle;fill:#000000;fill-opacity:1;stroke:none;font-family:Yuanti SC;-inkscape-font-specification:Yuanti SC"
     id="flowRoot4098"><flowRegion
       id="flowRegion4100"><use
         x="0"
         y="0"
         xlink:href="#rect3880-5-7"
         id="use4102" /></flowRegion><flowPara
       style="font-size:14px;font-style:normal;font-variant:normal;font-weight:normal;font-stretch:normal;font-family:Yuanti SC;-inkscape-font-specification:Yuanti SC"
       id="flowPara4104">xxType</flowPara></flowRoot>  <flowRoot
     xml:space="preserve"
     style="font-size:40px;font-style:normal;font-variant:normal;font-weight:normal;font-stretch:normal;text-align:center;line-height:125%;letter-spacing:0px;word-spacing:0px;text-anchor:middle;fill:#000000;fill-opacity:1;stroke:none;font-family:Yuanti SC;-inkscape-font-specification:Yuanti SC"
     id="flowRoot4106"><flowRegion
       id="flowRegion4108"><use
         x="0"
         y="0"
         xlink:href="#rect3880-5"
         id="use4110" /></flowRegion><flowPara
       id="flowPara4112"
       style="font-size:14px;font-style:normal;font-variant:normal;font-weight:normal;font-stretch:normal;font-family:Yuanti SC;-inkscape-font-specification:Yuanti SC">xxName</flowPara></flowRoot></svg>
