<?xml version="1.0" encoding="UTF-8" standalone="no"?>
<svg
   xmlns:dc="http://purl.org/dc/elements/1.1/"
   xmlns:cc="http://creativecommons.org/ns#"
   xmlns:rdf="http://www.w3.org/1999/02/22-rdf-syntax-ns#"
   xmlns:svg="http://www.w3.org/2000/svg"
   xmlns="http://www.w3.org/2000/svg"
   xmlns:xlink="http://www.w3.org/1999/xlink"
   xmlns:sodipodi="http://sodipodi.sourceforge.net/DTD/sodipodi-0.dtd"
   xmlns:inkscape="http://www.inkscape.org/namespaces/inkscape"
   version="1.0"
   width="315"
   height="225"
   id="svg2"
   inkscape:version="0.48.5 r10040"
   sodipodi:docname="repair-template-small.svg">
  <metadata
     id="metadata98">
    <rdf:RDF>
      <cc:Work
         rdf:about="">
        <dc:format>image/svg+xml</dc:format>
        <dc:type
           rdf:resource="http://purl.org/dc/dcmitype/StillImage" />
        <dc:title />
      </cc:Work>
    </rdf:RDF>
  </metadata>
  <sodipodi:namedview
     pagecolor="#ffffff"
     bordercolor="#666666"
     borderopacity="1"
     objecttolerance="10"
     gridtolerance="10"
     guidetolerance="10"
     inkscape:pageopacity="0"
     inkscape:pageshadow="2"
     inkscape:window-width="1920"
     inkscape:window-height="1018"
     id="namedview96"
     showgrid="true"
     inkscape:zoom="3.2988764"
     inkscape:cx="138.57784"
     inkscape:cy="122.13733"
     inkscape:window-x="-8"
     inkscape:window-y="-8"
     inkscape:window-maximized="1"
     inkscape:current-layer="svg2"
     units="in"
     fit-margin-top="0"
     fit-margin-left="0"
     fit-margin-right="0"
     fit-margin-bottom="0"
     inkscape:document-units="in">
    <inkscape:grid
       type="xygrid"
       id="grid3785"
       empspacing="4"
       visible="true"
       enabled="true"
       snapvisiblegridlinesonly="true"
       units="in"
       spacingx="0.0625in"
       spacingy="0.0625in" />
  </sodipodi:namedview>
  <defs
     id="defs4" />
  <image
     sodipodi:absref="C:\Users\jsi\Dropbox (Personal)\Fun\Asimov\pieces\repair\src\../../icon/xxIcon.png"
     xlink:href="../../icon/xxIcon.png"
     style="stroke-width:0.5;stroke-miterlimit:4;stroke-dasharray:none"
     width="45"
     height="45"
     id="image3787"
     x="135"
     y="2.8421709e-014" />
  <g
     id="g4041">
    <rect
       ry="9.0371004e-006"
       y="2.8421709e-014"
       x="135"
       height="45"
       width="2.8080001"
       id="rect3015"
       style="fill:#deaded;fill-opacity:1;stroke:none" />
    <rect
       ry="9.0371004e-006"
       y="-2.1854805e-014"
       x="177.183"
       height="45"
       width="2.8169999"
       id="rect3015-7"
       style="fill:#deaded;fill-opacity:1;stroke:none" />
    <rect
       ry="5.6391542e-007"
       y="42.192001"
       x="135"
       height="2.808002"
       width="45"
       id="rect3015-7-4"
       style="fill:#deaded;fill-opacity:1;stroke:none" />
    <rect
       transform="scale(1,-1)"
       ry="5.6572242e-007"
       y="-2.8169999"
       x="135"
       height="2.8169999"
       width="45"
       id="rect3015-7-4-0"
       style="fill:#deaded;fill-opacity:1;stroke:none" />
  </g>
  <image
     sodipodi:absref="C:\Users\jsi\Dropbox (Personal)\Fun\Asimov\pieces\repair\src\xxGraph.png"
     xlink:href="xxGraph.png"
     width="247.5"
     height="180"
     id="image3798"
     x="33.75"
     y="45" />
  <path
     inkscape:connector-curvature="0"
     id="path16"
     d="m 0,45 315,0 0,180 -315,0 z"
     style="fill:none;stroke:#000000;stroke-width:0.9;stroke-linecap:butt;stroke-linejoin:miter;stroke-miterlimit:4;stroke-opacity:1;stroke-dasharray:none;marker-start:none"
     sodipodi:nodetypes="ccccc" />
  <path
     inkscape:connector-curvature="0"
     id="path32"
     d="M 0,0 135,0 135,45 0,45 z"
     style="fill:none;stroke:#000000;stroke-width:0.9;stroke-linecap:butt;stroke-linejoin:miter;stroke-miterlimit:4;stroke-opacity:1;stroke-dasharray:none;marker-start:none"
     sodipodi:nodetypes="ccccc" />
  <path
     inkscape:connector-curvature="0"
     id="path36"
     d="m 180,0 135,0 0,45 -135,0 z"
     style="fill:none;stroke:#000000;stroke-width:0.9;stroke-linecap:butt;stroke-linejoin:miter;stroke-miterlimit:4;stroke-opacity:1;stroke-dasharray:none;marker-start:none"
     sodipodi:nodetypes="ccccc" />
  <text
     xml:space="preserve"
     style="font-size:40px;font-style:normal;font-weight:normal;line-height:125%;letter-spacing:0px;word-spacing:0px;fill:#000000;fill-opacity:1;stroke:none;font-family:Sans"
     x="160"
     y="71"
     id="text4054"
     sodipodi:linespacing="125%"><tspan
       sodipodi:role="line"
       id="tspan4056"
       x="160"
       y="71" /></text>
  <text
     xml:space="preserve"
     style="font-size:40px;font-style:normal;font-weight:normal;line-height:125%;letter-spacing:0px;word-spacing:0px;fill:#000000;fill-opacity:1;stroke:none;font-family:Sans"
     x="270.5"
     y="-74"
     id="text4066"
     sodipodi:linespacing="125%"><tspan
       sodipodi:role="line"
       id="tspan4068"
       x="270.5"
       y="-74" /></text>
  <path
     inkscape:connector-curvature="0"
     id="path32-1"
     d="m 135,0 45,0 0,45 -45,0 z"
     style="fill:none;stroke:#000000;stroke-width:0.89999998;stroke-linecap:butt;stroke-linejoin:miter;stroke-miterlimit:4;stroke-opacity:1;stroke-dasharray:none"
     sodipodi:nodetypes="ccccc" />
  <rect
     style="fill:#000000;fill-opacity:0;stroke:none"
     id="rect3880"
     width="123.75"
     height="33.75"
     x="5.625"
     y="5.625"
     ry="9.3195085e-006" />
  <text
     xml:space="preserve"
     style="font-size:14px;font-style:normal;font-variant:normal;font-weight:normal;font-stretch:normal;text-align:center;line-height:125%;letter-spacing:0px;word-spacing:0px;text-anchor:middle;fill:#000000;fill-opacity:1;stroke:none;font-family:Yuanti SC;-inkscape-font-specification:Yuanti SC;stroke-width:0.5;stroke-miterlimit:4;stroke-dasharray:none"
     x="247.60254"
     y="25.624023"
     id="text3019"
     sodipodi:linespacing="125%"><tspan
       sodipodi:role="line"
       id="tspan3021"
       x="247.60254"
       y="25.624023">xxType</tspan></text>
  <flowRoot
     xml:space="preserve"
     style="font-size:40px;font-style:normal;font-variant:normal;font-weight:normal;font-stretch:normal;text-align:center;line-height:125%;letter-spacing:0px;word-spacing:0px;text-anchor:middle;fill:#000000;fill-opacity:1;stroke:none;font-family:Yuanti SC;-inkscape-font-specification:Yuanti SC;stroke-width:0.5;stroke-miterlimit:4;stroke-dasharray:none"
     id="flowRoot3059"><flowRegion
       id="flowRegion3061"><use
         x="0"
         y="0"
         xlink:href="#rect3880"
         id="use3063" /></flowRegion><flowPara
       id="flowPara3065"
       style="font-size:14px;font-style:normal;font-variant:normal;font-weight:normal;font-stretch:normal;font-family:Yuanti SC;-inkscape-font-specification:Yuanti SC;stroke-width:0.5;stroke-miterlimit:4;stroke-dasharray:none">xxName</flowPara></flowRoot></svg>
