ID,Name,Type,IconFile,IconColor,Shield,Armor,Explosion,Speed,Turn,Diameter,Accuracy,Description
1,Hellfire Missiles,Missile,Icon00,800080,4,4,5,12,4,40,2,Normal Missile
2,Turin Missiles,Missile,Icon01,800080,3,3,5,15,5,40,2,Normal Missile
3,Bradbury Torpedoes,Missile,Icon02,800080,6,6,3,10,4,100,5,Explodes when within 7 squares of ship or asteroid
4,Capone Missiles,Missile,Icon03,800080,5,9,9,8,3,150,2,Normal Missile
5,Little Boy Missiles,Missile,Icon04,800080,10,10,9,8,4,150,2,Explosion on Battle Board or radius 7 squares
6,Niven Torpeoes,Missile,Icon05,800080,4,4,3,15,4,100,5,Explodes when within 10 squares of ship
7,MUXal Missiles,Missile,Icon06,800080,3,8,5,9,3,100,2,Normal Missile
