<?xml version="1.0" encoding="UTF-8" standalone="no"?>
<svg
   xmlns:dc="http://purl.org/dc/elements/1.1/"
   xmlns:cc="http://creativecommons.org/ns#"
   xmlns:rdf="http://www.w3.org/1999/02/22-rdf-syntax-ns#"
   xmlns:svg="http://www.w3.org/2000/svg"
   xmlns="http://www.w3.org/2000/svg"
   xmlns:xlink="http://www.w3.org/1999/xlink"
   xmlns:sodipodi="http://sodipodi.sourceforge.net/DTD/sodipodi-0.dtd"
   xmlns:inkscape="http://www.inkscape.org/namespaces/inkscape"
   version="1.0"
   width="315"
   height="225"
   id="svg2"
   inkscape:version="0.48.5 r10040"
   sodipodi:docname="missile-template-small.svg">
  <metadata
     id="metadata98">
    <rdf:RDF>
      <cc:Work
         rdf:about="">
        <dc:format>image/svg+xml</dc:format>
        <dc:type
           rdf:resource="http://purl.org/dc/dcmitype/StillImage" />
        <dc:title />
      </cc:Work>
    </rdf:RDF>
  </metadata>
  <sodipodi:namedview
     pagecolor="#ffffff"
     bordercolor="#666666"
     borderopacity="1"
     objecttolerance="10"
     gridtolerance="10"
     guidetolerance="10"
     inkscape:pageopacity="0"
     inkscape:pageshadow="2"
     inkscape:window-width="1920"
     inkscape:window-height="1018"
     id="namedview96"
     showgrid="true"
     inkscape:zoom="2.3326579"
     inkscape:cx="261.97782"
     inkscape:cy="148.22759"
     inkscape:window-x="-8"
     inkscape:window-y="-8"
     inkscape:window-maximized="1"
     inkscape:current-layer="svg2"
     units="in"
     fit-margin-top="0"
     fit-margin-left="0"
     fit-margin-right="0"
     fit-margin-bottom="0"
     inkscape:document-units="in">
    <inkscape:grid
       type="xygrid"
       id="grid3093"
       empspacing="4"
       visible="true"
       enabled="true"
       snapvisiblegridlinesonly="true"
       units="in"
       spacingx="0.0625in"
       spacingy="0.0625in" />
  </sodipodi:namedview>
  <defs
     id="defs4" />
  <text
     xml:space="preserve"
     style="font-size:40px;font-style:normal;font-weight:normal;line-height:125%;letter-spacing:0px;word-spacing:0px;fill:#000000;fill-opacity:1;stroke:none;font-family:Sans"
     x="160"
     y="71"
     id="text4054"
     sodipodi:linespacing="125%"><tspan
       sodipodi:role="line"
       id="tspan4056"
       x="160"
       y="71" /></text>
  <text
     xml:space="preserve"
     style="font-size:40px;font-style:normal;font-weight:normal;line-height:125%;letter-spacing:0px;word-spacing:0px;fill:#000000;fill-opacity:1;stroke:none;font-family:Sans"
     x="270.5"
     y="-74"
     id="text4066"
     sodipodi:linespacing="125%"><tspan
       sodipodi:role="line"
       id="tspan4068"
       x="270.5"
       y="-74" /></text>
  <text
     sodipodi:linespacing="125%"
     id="text3025"
     y="56.25"
     x="258.75"
     style="font-size:10px;font-style:normal;font-weight:normal;text-align:center;line-height:125%;letter-spacing:0px;word-spacing:0px;text-anchor:middle;fill:#000000;fill-opacity:1;stroke:none;font-family:Yuanti SC;-inkscape-font-specification:Yuanti SC"
     xml:space="preserve"><tspan
       style="font-size:10px;text-align:center;text-anchor:middle"
       y="56.25"
       x="258.75"
       id="tspan3027"
       sodipodi:role="line">Sh</tspan></text>
  <text
     sodipodi:linespacing="125%"
     id="text3025-1"
     y="56.25"
     x="281.25"
     style="font-size:10px;font-style:normal;font-weight:normal;text-align:center;line-height:125%;letter-spacing:0px;word-spacing:0px;text-anchor:middle;fill:#000000;fill-opacity:1;stroke:none;font-family:Yuanti SC;-inkscape-font-specification:Yuanti SC"
     xml:space="preserve"><tspan
       style="font-size:10px;text-align:center;text-anchor:middle"
       y="56.25"
       x="281.25"
       id="tspan3027-7"
       sodipodi:role="line">Ar</tspan></text>
  <text
     sodipodi:linespacing="125%"
     id="text3025-4"
     y="56.25"
     x="303.75"
     style="font-size:10px;font-style:normal;font-weight:normal;text-align:center;line-height:125%;letter-spacing:0px;word-spacing:0px;text-anchor:middle;fill:#000000;fill-opacity:1;stroke:none;font-family:Yuanti SC;-inkscape-font-specification:Yuanti SC"
     xml:space="preserve"><tspan
       style="font-size:10px;text-align:center;text-anchor:middle"
       y="56.25"
       x="303.75"
       id="tspan3027-0"
       sodipodi:role="line">Ex</tspan></text>
  <text
     xml:space="preserve"
     style="font-size:10px;font-style:normal;font-weight:normal;text-align:center;line-height:125%;letter-spacing:0px;word-spacing:0px;text-anchor:middle;fill:#000000;fill-opacity:1;stroke:none;font-family:Yuanti SC;-inkscape-font-specification:Yuanti SC"
     x="258.75"
     y="101.25"
     id="text3025-9"
     sodipodi:linespacing="125%"><tspan
       sodipodi:role="line"
       id="tspan3027-4"
       x="258.75"
       y="101.25"
       style="font-size:10px;text-align:center;text-anchor:middle">Sp</tspan></text>
  <text
     xml:space="preserve"
     style="font-size:10px;font-style:normal;font-weight:normal;text-align:center;line-height:125%;letter-spacing:0px;word-spacing:0px;text-anchor:middle;fill:#000000;fill-opacity:1;stroke:none;font-family:Yuanti SC;-inkscape-font-specification:Yuanti SC"
     x="281.25"
     y="101.25"
     id="text3025-1-8"
     sodipodi:linespacing="125%"><tspan
       sodipodi:role="line"
       id="tspan3027-7-8"
       x="281.25"
       y="101.25"
       style="font-size:10px;text-align:center;text-anchor:middle">Tu</tspan></text>
  <text
     xml:space="preserve"
     style="font-size:10px;font-style:normal;font-weight:normal;text-align:center;line-height:125%;letter-spacing:0px;word-spacing:0px;text-anchor:middle;fill:#000000;fill-opacity:1;stroke:none;font-family:Yuanti SC;-inkscape-font-specification:Yuanti SC"
     x="303.75"
     y="101.25"
     id="text3025-4-2"
     sodipodi:linespacing="125%"><tspan
       sodipodi:role="line"
       id="tspan3027-0-4"
       x="303.75"
       y="101.25"
       style="font-size:10px;text-align:center;text-anchor:middle">Ac</tspan></text>
  <text
     sodipodi:linespacing="125%"
     id="text3025-18"
     y="78.75"
     x="258.75"
     style="font-size:10px;font-style:normal;font-weight:normal;text-align:center;line-height:125%;letter-spacing:0px;word-spacing:0px;text-anchor:middle;fill:#000000;fill-opacity:1;stroke:none;font-family:Yuanti SC;-inkscape-font-specification:Yuanti SC"
     xml:space="preserve"><tspan
       style="font-size:10px;text-align:center;text-anchor:middle"
       y="78.75"
       x="258.75"
       id="tspan3027-9"
       sodipodi:role="line">xxSh</tspan></text>
  <text
     sodipodi:linespacing="125%"
     id="text3025-1-2"
     y="78.75"
     x="281.25"
     style="font-size:10px;font-style:normal;font-weight:normal;text-align:center;line-height:125%;letter-spacing:0px;word-spacing:0px;text-anchor:middle;fill:#000000;fill-opacity:1;stroke:none;font-family:Yuanti SC;-inkscape-font-specification:Yuanti SC"
     xml:space="preserve"><tspan
       style="font-size:10px;text-align:center;text-anchor:middle"
       y="78.75"
       x="281.25"
       id="tspan3027-7-7"
       sodipodi:role="line">xxAr</tspan></text>
  <text
     sodipodi:linespacing="125%"
     id="text3025-4-9"
     y="78.75"
     x="303.75"
     style="font-size:10px;font-style:normal;font-weight:normal;text-align:center;line-height:125%;letter-spacing:0px;word-spacing:0px;text-anchor:middle;fill:#000000;fill-opacity:1;stroke:none;font-family:Yuanti SC;-inkscape-font-specification:Yuanti SC"
     xml:space="preserve"><tspan
       style="font-size:10px;text-align:center;text-anchor:middle"
       y="78.75"
       x="303.75"
       id="tspan3027-0-5"
       sodipodi:role="line">xxEx</tspan></text>
  <text
     xml:space="preserve"
     style="font-size:10px;font-style:normal;font-weight:normal;text-align:center;line-height:125%;letter-spacing:0px;word-spacing:0px;text-anchor:middle;fill:#000000;fill-opacity:1;stroke:none;font-family:Yuanti SC;-inkscape-font-specification:Yuanti SC"
     x="258.75"
     y="123.75"
     id="text3025-9-4"
     sodipodi:linespacing="125%"><tspan
       sodipodi:role="line"
       id="tspan3027-4-3"
       x="258.75"
       y="123.75"
       style="font-size:10px;text-align:center;text-anchor:middle">xxSp</tspan></text>
  <text
     xml:space="preserve"
     style="font-size:10px;font-style:normal;font-weight:normal;text-align:center;line-height:125%;letter-spacing:0px;word-spacing:0px;text-anchor:middle;fill:#000000;fill-opacity:1;stroke:none;font-family:Yuanti SC;-inkscape-font-specification:Yuanti SC"
     x="281.25"
     y="123.75"
     id="text3025-1-8-1"
     sodipodi:linespacing="125%"><tspan
       sodipodi:role="line"
       id="tspan3027-7-8-2"
       x="281.25"
       y="123.75"
       style="font-size:10px;text-align:center;text-anchor:middle">xxTu</tspan></text>
  <text
     xml:space="preserve"
     style="font-size:10px;font-style:normal;font-weight:normal;text-align:center;line-height:125%;letter-spacing:0px;word-spacing:0px;text-anchor:middle;fill:#000000;fill-opacity:1;stroke:none;font-family:Yuanti SC;-inkscape-font-specification:Yuanti SC"
     x="303.75"
     y="123.75"
     id="text3025-4-2-3"
     sodipodi:linespacing="125%"><tspan
       sodipodi:role="line"
       id="tspan3027-0-4-3"
       x="303.75"
       y="123.75"
       style="font-size:10px;text-align:center;text-anchor:middle">xxAc</tspan></text>
  <text
     xml:space="preserve"
     style="font-size:10px;font-style:normal;font-weight:normal;text-align:center;line-height:125%;letter-spacing:0px;word-spacing:0px;text-anchor:middle;fill:#000000;fill-opacity:1;stroke:none;font-family:Yuanti SC;-inkscape-font-specification:Yuanti SC"
     x="281.25"
     y="146.25"
     id="text3025-1-8-1-4"
     sodipodi:linespacing="125%"><tspan
       sodipodi:role="line"
       id="tspan3027-7-8-2-8"
       x="281.25"
       y="146.25"
       style="font-size:8px;text-align:center;text-anchor:middle">xxDi cm Diameter</tspan></text>
  <rect
     style="fill:#000000;fill-opacity:0;stroke:none"
     id="rect3880-4-1"
     width="315"
     height="180"
     x="45"
     y="0"
     ry="4.9704049e-005" />
  <flowRoot
     transform="translate(-404.56591,115.89034)"
     xml:space="preserve"
     style="font-size:14px;font-style:normal;font-variant:normal;font-weight:normal;font-stretch:normal;text-align:center;line-height:125%;letter-spacing:0px;word-spacing:0px;text-anchor:middle;fill:#000000;fill-opacity:1;stroke:none;font-family:Old English Text MT;-inkscape-font-specification:Old English Text MT"
     id="flowRoot3932-7"><flowRegion
       id="flowRegion3934-4"><use
         x="0"
         y="0"
         xlink:href="#rect3880-4-1"
         id="use3936-0"
         width="539.83636"
         height="359.78412"
         transform="translate(326.25,11.034119)" /></flowRegion><flowPara
       style="font-size:14px;font-style:normal;font-variant:normal;font-weight:normal;font-stretch:normal;font-family:Yuanti SC;-inkscape-font-specification:Yuanti SC"
       id="flowPara3938-9">xxDescription</flowPara></flowRoot>  <image
     sodipodi:absref="C:\Users\jsi\Dropbox (Personal)\Fun\Asimov\pieces\missile\src\../../icon/xxIcon.png"
     xlink:href="../../icon/xxIcon.png"
     y="-1.4589843e-006"
     x="135"
     id="image3787-1"
     height="45"
     width="45"
     style="stroke-width:0.5;stroke-miterlimit:4;stroke-dasharray:none" />
  <g
     transform="translate(0,-1e-6)"
     id="g4041">
    <rect
       ry="9.0371004e-006"
       y="2.8421709e-014"
       x="135"
       height="45"
       width="2.8080001"
       id="rect3015"
       style="fill:#deaded;fill-opacity:1;stroke:none" />
    <rect
       ry="9.0371004e-006"
       y="-2.1854805e-014"
       x="177.183"
       height="45"
       width="2.8169999"
       id="rect3015-7"
       style="fill:#deaded;fill-opacity:1;stroke:none" />
    <rect
       ry="5.6391542e-007"
       y="42.192001"
       x="135"
       height="2.808002"
       width="45"
       id="rect3015-7-4"
       style="fill:#deaded;fill-opacity:1;stroke:none" />
    <rect
       transform="scale(1,-1)"
       ry="5.6572242e-007"
       y="-2.8169999"
       x="135"
       height="2.8169999"
       width="45"
       id="rect3015-7-4-0"
       style="fill:#deaded;fill-opacity:1;stroke:none" />
  </g>
  <path
     inkscape:connector-curvature="0"
     id="path16"
     d="m 0,44.999998 315,0 L 315,225 0,225 z"
     style="fill:none;stroke:#000000;stroke-width:0.89999998;stroke-linecap:butt;stroke-linejoin:miter;stroke-miterlimit:4;stroke-opacity:1;stroke-dasharray:none;marker-start:none"
     sodipodi:nodetypes="ccccc" />
  <path
     inkscape:connector-curvature="0"
     id="path32-74"
     d="m 0,-1e-6 135,0 0,44.999999 -135,0 z"
     style="fill:none;stroke:#000000;stroke-width:0.89999998;stroke-linecap:butt;stroke-linejoin:miter;stroke-miterlimit:4;stroke-opacity:1;stroke-dasharray:none;marker-start:none"
     sodipodi:nodetypes="ccccc" />
  <path
     inkscape:connector-curvature="0"
     id="path36-0"
     d="m 180,-1e-6 135,0 0,44.999999 -135,0 z"
     style="fill:none;stroke:#000000;stroke-width:0.89999998;stroke-linecap:butt;stroke-linejoin:miter;stroke-miterlimit:4;stroke-opacity:1;stroke-dasharray:none;marker-start:none"
     sodipodi:nodetypes="ccccc" />
  <text
     xml:space="preserve"
     style="font-size:40px;font-style:normal;font-weight:normal;line-height:125%;letter-spacing:0px;word-spacing:0px;fill:#000000;fill-opacity:1;stroke:none;font-family:Sans"
     x="-143.00409"
     y="-73.55722"
     id="text4054-9"
     sodipodi:linespacing="125%"><tspan
       sodipodi:role="line"
       id="tspan4056-4"
       x="-143.00409"
       y="-73.55722" /></text>
  <text
     xml:space="preserve"
     style="font-size:40px;font-style:normal;font-weight:normal;line-height:125%;letter-spacing:0px;word-spacing:0px;fill:#000000;fill-opacity:1;stroke:none;font-family:Sans"
     x="-32.504074"
     y="-218.55722"
     id="text4066-8"
     sodipodi:linespacing="125%"><tspan
       sodipodi:role="line"
       id="tspan4068-8"
       x="-32.504074"
       y="-218.55722" /></text>
  <path
     inkscape:connector-curvature="0"
     id="path32-1-2"
     d="m 135,-1e-6 45,0 0,44.999999 -45,0 z"
     style="fill:none;stroke:#000000;stroke-width:0.89999998;stroke-linecap:butt;stroke-linejoin:miter;stroke-miterlimit:4;stroke-opacity:1;stroke-dasharray:none"
     sodipodi:nodetypes="ccccc" />
  <rect
     style="fill:#000000;fill-opacity:0;stroke:none"
     id="rect3880-45"
     width="123.75"
     height="33.75"
     x="5.6250005"
     y="5.6249986"
     ry="9.3195085e-006" />
  <text
     xml:space="preserve"
     style="font-size:14px;font-style:normal;font-variant:normal;font-weight:normal;font-stretch:normal;text-align:center;line-height:125%;letter-spacing:0px;word-spacing:0px;text-anchor:middle;fill:#000000;fill-opacity:1;stroke:none;font-family:Yuanti SC;-inkscape-font-specification:Yuanti SC"
     x="247.60254"
     y="25.624022"
     id="text3019"
     sodipodi:linespacing="125%"><tspan
       sodipodi:role="line"
       id="tspan3021"
       x="247.60254"
       y="25.624022">xxType</tspan></text>
  <flowRoot
     xml:space="preserve"
     style="font-size:40px;font-style:normal;font-variant:normal;font-weight:normal;font-stretch:normal;text-align:center;line-height:125%;letter-spacing:0px;word-spacing:0px;text-anchor:middle;fill:#000000;fill-opacity:1;stroke:none;font-family:Yuanti SC;-inkscape-font-specification:Yuanti SC"
     id="flowRoot3095"><flowRegion
       id="flowRegion3097"><use
         x="0"
         y="0"
         xlink:href="#rect3880-45"
         id="use3099" /></flowRegion><flowPara
       style="font-size:14px;font-style:normal;font-variant:normal;font-weight:normal;font-stretch:normal;font-family:Yuanti SC;-inkscape-font-specification:Yuanti SC"
       id="flowPara3101">xxName</flowPara></flowRoot>  <path
     inkscape:connector-curvature="0"
     id="path36-0-1"
     d="m 247.5,151.87499 67.5,0 0,73.125 -67.5,0 z"
     style="fill:none;stroke:#000000;stroke-width:0.89999998;stroke-linecap:butt;stroke-linejoin:miter;stroke-miterlimit:4;stroke-opacity:1;stroke-dasharray:none;marker-start:none"
     sodipodi:nodetypes="ccccc" />
  <path
     inkscape:connector-curvature="0"
     id="path36-0-1-7"
     d="M 9.3750001e-6,44.999998 247.5,44.999998 l 0,179.999992 -247.499990625,0 z"
     style="fill:none;stroke:#000000;stroke-width:0.89999998;stroke-linecap:butt;stroke-linejoin:miter;stroke-miterlimit:4;stroke-opacity:1;stroke-dasharray:none;marker-start:none"
     sodipodi:nodetypes="ccccc" />
  <path
     inkscape:connector-curvature="0"
     id="path36-0-1-1"
     d="m 247.5,135 67.5,0 0,16.875 -67.5,0 z"
     style="fill:none;stroke:#000000;stroke-width:0.89999998;stroke-linecap:butt;stroke-linejoin:miter;stroke-miterlimit:4;stroke-opacity:1;stroke-dasharray:none;marker-start:none"
     sodipodi:nodetypes="ccccc" />
  <path
     inkscape:connector-curvature="0"
     id="path36-0-1-1-1"
     d="m 247.5,45.000001 22.5,0 0,45.000001 -22.5,0 z"
     style="fill:none;stroke:#000000;stroke-width:0.89999992;stroke-linecap:butt;stroke-linejoin:miter;stroke-miterlimit:4;stroke-opacity:1;stroke-dasharray:none;marker-start:none"
     sodipodi:nodetypes="ccccc" />
  <path
     inkscape:connector-curvature="0"
     id="path36-0-1-1-1-5"
     d="m 270,45 22.5,0 0,45.000001 -22.5,0 z"
     style="fill:none;stroke:#000000;stroke-width:0.89999992;stroke-linecap:butt;stroke-linejoin:miter;stroke-miterlimit:4;stroke-opacity:1;stroke-dasharray:none;marker-start:none"
     sodipodi:nodetypes="ccccc" />
  <path
     inkscape:connector-curvature="0"
     id="path36-0-1-1-1-2"
     d="m 270,90 22.5,0 0,45 -22.5,0 z"
     style="fill:none;stroke:#000000;stroke-width:0.89999992;stroke-linecap:butt;stroke-linejoin:miter;stroke-miterlimit:4;stroke-opacity:1;stroke-dasharray:none;marker-start:none"
     sodipodi:nodetypes="ccccc" />
  <path
     inkscape:connector-curvature="0"
     id="path36-0-1-1-1-7"
     d="m 247.5,90 22.5,0 0,45 -22.5,0 z"
     style="fill:none;stroke:#000000;stroke-width:0.89999992;stroke-linecap:butt;stroke-linejoin:miter;stroke-miterlimit:4;stroke-opacity:1;stroke-dasharray:none;marker-start:none"
     sodipodi:nodetypes="ccccc" />
  <path
     inkscape:connector-curvature="0"
     id="path36-0-1-1-1-6"
     d="m 292.5,45 22.5,0 0,45.000001 -22.5,0 z"
     style="fill:none;stroke:#000000;stroke-width:0.89999992;stroke-linecap:butt;stroke-linejoin:miter;stroke-miterlimit:4;stroke-opacity:1;stroke-dasharray:none;marker-start:none"
     sodipodi:nodetypes="ccccc" />
  <path
     inkscape:connector-curvature="0"
     id="path36-0-1-1-1-1"
     d="m 292.5,90 22.5,0 0,45 -22.5,0 z"
     style="fill:none;stroke:#000000;stroke-width:0.89999992;stroke-linecap:butt;stroke-linejoin:miter;stroke-miterlimit:4;stroke-opacity:1;stroke-dasharray:none;marker-start:none"
     sodipodi:nodetypes="ccccc" />
</svg>
