<?xml version="1.0" encoding="UTF-8" standalone="no"?>
<!-- Created with Inkscape (http://www.inkscape.org/) -->

<svg
   xmlns:dc="http://purl.org/dc/elements/1.1/"
   xmlns:cc="http://creativecommons.org/ns#"
   xmlns:rdf="http://www.w3.org/1999/02/22-rdf-syntax-ns#"
   xmlns:svg="http://www.w3.org/2000/svg"
   xmlns="http://www.w3.org/2000/svg"
   xmlns:sodipodi="http://sodipodi.sourceforge.net/DTD/sodipodi-0.dtd"
   xmlns:inkscape="http://www.inkscape.org/namespaces/inkscape"
   width="90"
   height="90"
   id="svg3958"
   version="1.1"
   inkscape:version="0.48.5 r10040"
   sodipodi:docname="Icon4.svg"
   inkscape:export-filename="C:\Users\jsi\Dropbox (Personal)\Fun\Asimov\pieces\systems-database\shield\xxIcon.png"
   inkscape:export-xdpi="300"
   inkscape:export-ydpi="300">
  <defs
     id="defs3960" />
  <sodipodi:namedview
     id="base"
     pagecolor="#ffffff"
     bordercolor="#666666"
     borderopacity="1.0"
     inkscape:pageopacity="0.0"
     inkscape:pageshadow="2"
     inkscape:zoom="3.959798"
     inkscape:cx="34.841746"
     inkscape:cy="25.261338"
     inkscape:document-units="px"
     inkscape:current-layer="layer1"
     showgrid="false"
     fit-margin-top="0"
     fit-margin-left="0"
     fit-margin-right="0"
     fit-margin-bottom="0"
     inkscape:window-width="1436"
     inkscape:window-height="856"
     inkscape:window-x="4"
     inkscape:window-y="0"
     inkscape:window-maximized="1" />
  <metadata
     id="metadata3963">
    <rdf:RDF>
      <cc:Work
         rdf:about="">
        <dc:format>image/svg+xml</dc:format>
        <dc:type
           rdf:resource="http://purl.org/dc/dcmitype/StillImage" />
        <dc:title></dc:title>
      </cc:Work>
    </rdf:RDF>
  </metadata>
  <g
     inkscape:label="Layer 1"
     inkscape:groupmode="layer"
     id="layer1"
     transform="translate(0,-962.36218)">
    <rect
       style="fill:#ffffff;fill-opacity:1;stroke:none"
       id="rect4480"
       width="90"
       height="90"
       x="0"
       y="962.36218"
       ry="7.0312499e-006" />
    <path
       sodipodi:type="arc"
       style="fill:#ffffff"
       id="path2985"
       sodipodi:cx="45"
       sodipodi:cy="42.5"
       sodipodi:rx="18.571428"
       sodipodi:ry="15.714286"
       d="m 63.571428,42.5 c 0,8.67876 -8.314711,15.714286 -18.571428,15.714286 -10.256717,0 -18.571428,-7.035526 -18.571428,-15.714286 0,-8.67876 8.314711,-15.714286 18.571428,-15.714286 10.256717,0 18.571428,7.035526 18.571428,15.714286 z"
       transform="translate(0,962.36218)" />
    <path
       sodipodi:type="arc"
       style="fill:#000000"
       id="path2987"
       sodipodi:cx="39.285713"
       sodipodi:cy="36.42857"
       sodipodi:rx="21.071428"
       sodipodi:ry="18.571428"
       d="m 60.357141,36.42857 a 21.071428,18.571428 0 1 1 -42.142856,0 21.071428,18.571428 0 1 1 42.142856,0 z"
       transform="matrix(0.94915255,0,0,-1.0769231,7.7118651,1046.593)" />
    <rect
       style="fill:#ffffff"
       id="rect3190"
       width="36.618031"
       height="7.5761437"
       x="32.499359"
       y="1005.2157"
       ry="3.7006578e-06" />
    <rect
       style="fill:#ffffff"
       id="rect3255"
       width="39.901024"
       height="2.7779198"
       x="9.5964508"
       y="995.54108"
       ry="1.3131366e-06" />
  </g>
</svg>
